09_Multiplexor2/simulation/qsim/Multiplexor4.msim.vcd
$comment
	File created using the following command:
		vcd file Multiplexor4.msim.vcd -direction
$end
$date
	Tue Oct 15 19:04:12 2019
$end
$version
	ModelSim Version 10.1d
$end
$timescale
	1ps
$end
$scope module Multiplexor4_vlg_vec_tst $end
$var reg 4 ! E [3:0] $end
$var reg 2 " S [1:0] $end
$var wire 1 # F $end
$var wire 1 $ sampler $end
$scope module i1 $end
$var wire 1 % gnd $end
$var wire 1 & vcc $end
$var wire 1 ' unknown $end
$var tri1 1 ( devclrn $end
$var tri1 1 ) devpor $end
$var tri1 1 * devoe $end
$var wire 1 + F~output_o $end
$var wire 1 , S[1]~input_o $end
$var wire 1 - E[0]~input_o $end
$var wire 1 . E[1]~input_o $end
$var wire 1 / S[0]~input_o $end
$var wire 1 0 Mux0~0_combout $end
$var wire 1 1 E[2]~input_o $end
$var wire 1 2 E[3]~input_o $end
$var wire 1 3 Mux0~1_combout $end
$upscope $end
$upscope $end
$enddefinitions $end
#0
$dumpvars
b110 !
b0 "
0#
x$
0%
1&
x'
1(
1)
1*
0+
0,
0-
1.
0/
00
11
02
03
$end
#5000
b1 "
1/
0$
10
13
1+
1#
#10000
b11 "
b10 "
0/
1,
1$
00
03
0+
0#
13
1+
1#
#15000
b11 "
1/
0$
10
03
0+
0#
#20000
b10 !
b1 "
b0 "
0/
0,
01
1$
00
13
1+
1#
03
0+
0#
#25000
b1 "
1/
0$
10
13
1+
1#
#30000
b11 "
b10 "
0/
1,
1$
00
03
0+
0#
#35000
b11 "
1/
0$
10
#40000
b0 !
b100 !
b1 "
b0 "
0/
0,
0.
11
1$
00
13
1+
1#
03
0+
0#
#45000
b1 "
1/
0$
#50000
b11 "
b10 "
0/
1,
1$
13
1+
1#
#55000
b11 "
1/
0$
10
03
0+
0#
#60000
b101 !
b1 "
b0 "
0/
0,
1-
1$
13
1+
1#
#65000
b1 "
1/
0$
00
03
0+
0#
#70000
b11 "
b10 "
0/
1,
1$
13
1+
1#
#75000
b11 "
1/
0$
10
03
0+
0#
#80000
b1101 !
b1001 !
b1 "
b0 "
0/
0,
01
12
1$
13
1+
1#
#85000
b1 "
1/
0$
00
03
0+
0#
#90000
b11 "
b10 "
0/
1,
1$
#95000
b11 "
1/
0$
10
13
1+
1#
