19_Sumador2/simulation/qsim/Sumador4Bits.msim.vcd
$comment
	File created using the following command:
		vcd file Sumador4Bits.msim.vcd -direction
$end
$date
	Tue Oct 15 18:34:37 2019
$end
$version
	ModelSim Version 10.1d
$end
$timescale
	1ps
$end
$scope module Sumador4Bits_vlg_vec_tst $end
$var reg 5 ! A [4:0] $end
$var reg 5 " B [4:0] $end
$var wire 1 # S [4] $end
$var wire 1 $ S [3] $end
$var wire 1 % S [2] $end
$var wire 1 & S [1] $end
$var wire 1 ' S [0] $end
$var wire 1 ( sampler $end
$scope module i1 $end
$var wire 1 ) gnd $end
$var wire 1 * vcc $end
$var wire 1 + unknown $end
$var tri1 1 , devclrn $end
$var tri1 1 - devpor $end
$var tri1 1 . devoe $end
$var wire 1 / S[0]~output_o $end
$var wire 1 0 S[1]~output_o $end
$var wire 1 1 S[2]~output_o $end
$var wire 1 2 S[3]~output_o $end
$var wire 1 3 S[4]~output_o $end
$var wire 1 4 B[0]~input_o $end
$var wire 1 5 A[0]~input_o $end
$var wire 1 6 Add0~0_combout $end
$var wire 1 7 A[1]~input_o $end
$var wire 1 8 B[1]~input_o $end
$var wire 1 9 Add0~1 $end
$var wire 1 : Add0~2_combout $end
$var wire 1 ; A[2]~input_o $end
$var wire 1 < B[2]~input_o $end
$var wire 1 = Add0~3 $end
$var wire 1 > Add0~4_combout $end
$var wire 1 ? A[3]~input_o $end
$var wire 1 @ B[3]~input_o $end
$var wire 1 A Add0~5 $end
$var wire 1 B Add0~6_combout $end
$var wire 1 C A[4]~input_o $end
$var wire 1 D B[4]~input_o $end
$var wire 1 E Add0~7 $end
$var wire 1 F Add0~8_combout $end
$upscope $end
$upscope $end
$enddefinitions $end
#0
$dumpvars
b0 !
b0 "
0'
0&
0%
0$
0#
x(
0)
1*
x+
1,
1-
1.
0/
00
01
02
03
04
05
06
07
08
09
0:
0;
0<
1=
0>
0?
0@
0A
0B
0C
0D
1E
0F
$end
#5000
b1 !
15
0(
16
1/
1'
#10000
b11 !
b10 !
05
17
1(
06
1:
0/
10
0'
1&
#15000
b11 !
15
0(
16
1/
1'
#20000
b111 !
b101 !
b100 !
05
07
1;
1(
06
0:
1>
0/
00
11
0'
0&
1%
#25000
b101 !
15
0(
16
1/
1'
#30000
b111 !
b110 !
05
17
1(
06
1:
0/
10
0'
1&
#35000
b111 !
15
0(
16
1/
1'
#40000
b1111 !
b1011 !
b1001 !
b1000 !
05
07
0;
1?
1(
06
0:
0>
1B
0/
00
01
12
0'
0&
0%
1$
#45000
b1001 !
15
0(
16
1/
1'
#50000
b1011 !
b1010 !
05
17
1(
06
1:
0/
10
0'
1&
#55000
b1011 !
15
0(
16
1/
1'
#60000
b1111 !
b1101 !
b1100 !
05
07
1;
1(
06
0:
1>
0/
00
11
0'
0&
1%
#65000
b1101 !
15
0(
16
1/
1'
#70000
b1111 !
b1110 !
05
17
1(
06
1:
0/
10
0'
1&
#75000
b1111 !
15
0(
16
1/
1'
#80000
b1 "
b111 !
b11 !
b1 !
b0 !
05
07
0;
0?
14
1(
0:
0>
0B
00
01
02
0&
0%
0$
#85000
b1 !
15
0(
19
06
0/
0'
1:
10
1&
#90000
b11 !
b10 !
05
17
1(
09
0=
16
0:
1=
1/
00
1'
0&
1:
1>
10
11
1&
1%
0>
01
0%
#95000
b11 !
15
0(
19
06
0=
0/
0'
0:
00
0&
1>
11
1%
#100000
b111 !
b101 !
b100 !
05
07
1;
1(
09
1=
1A
16
1:
0>
0A
1/
10
01
1'
1&
0%
0:
1>
1B
00
11
12
0&
1%
1$
0B
02
0$
#105000
b101 !
15
0(
19
06
0/
0'
1:
10
1&
#110000
b111 !
b110 !
05
17
1(
09
0=
16
0:
1=
1A
1/
00
1'
0&
1:
0>
0A
10
01
1&
0%
1>
1B
11
12
1%
1$
0B
02
0$
#115000
b111 !
15
0(
19
06
0=
0/
0'
0:
1A
00
0&
0>
01
0%
1B
12
1$
#120000
b1111 !
b1011 !
b1001 !
b1000 !
05
07
0;
1?
1(
09
1=
0A
0E
16
1:
1>
0B
1E
1/
10
11
02
1'
1&
1%
0$
0:
0>
1B
1F
00
01
12
13
0&
0%
1$
1#
0F
03
0#
#125000
b1001 !
15
0(
19
06
0/
0'
1:
10
1&
#130000
b1011 !
b1010 !
05
17
1(
09
0=
16
0:
1=
1/
00
1'
0&
1:
1>
10
11
1&
1%
0>
01
0%
#135000
b1011 !
15
0(
19
06
0=
0/
0'
0:
00
0&
1>
11
1%
#140000
b1111 !
b1101 !
b1100 !
05
07
1;
1(
09
1=
1A
16
1:
0>
0A
0E
1/
10
01
1'
1&
0%
0:
1>
0B
1E
00
11
02
0&
1%
0$
1B
1F
12
13
1$
1#
0F
03
0#
#145000
b1101 !
15
0(
19
06
0/
0'
1:
10
1&
#150000
b1111 !
b1110 !
05
17
1(
09
0=
16
0:
1=
1A
1/
00
1'
0&
1:
0>
0A
0E
10
01
1&
0%
1>
0B
1E
11
02
1%
0$
1B
1F
12
13
1$
1#
0F
03
0#
#155000
b1111 !
15
0(
19
06
0=
0/
0'
0:
1A
00
0&
0>
0E
01
0%
0B
02
0$
1F
13
1#
#160000
b1001 "
b1011 "
b1010 "
b111 !
b11 !
b1 !
b0 !
05
07
0;
0?
04
18
1@
1(
09
0A
1>
1=
1E
11
1%
1:
1B
10
12
1&
1$
0>
0F
01
03
0%
0#
#165000
b1 !
15
0(
16
1/
1'
#170000
b11 !
b10 !
05
17
1(
0=
06
0:
0/
00
0'
0&
1>
11
1%
#175000
b11 !
15
0(
16
1/
1'
#180000
b111 !
b101 !
b100 !
05
07
1;
1(
1=
1A
06
1:
0>
0A
0E
0/
10
01
0'
1&
0%
1>
0B
1E
11
02
1%
0$
1B
1F
12
13
1$
1#
0F
03
0#
#185000
b101 !
15
0(
16
1/
1'
#190000
b111 !
b110 !
05
17
1(
0=
06
0:
1A
0/
00
0'
0&
0>
0E
01
0%
0B
02
0$
1F
13
1#
#195000
b111 !
15
0(
16
1/
1'
#200000
b1111 !
b1011 !
b1001 !
b1000 !
05
07
0;
1?
1(
1=
0A
06
1:
1>
1B
0/
10
11
12
0'
1&
1%
1$
0>
0B
01
02
0%
0$
#205000
b1001 !
15
0(
16
1/
1'
#210000
b1011 !
b1010 !
05
17
1(
0=
06
0:
0/
00
0'
0&
1>
11
1%
#215000
b1011 !
15
0(
16
1/
1'
#220000
b1111 !
b1101 !
b1100 !
05
07
1;
1(
1=
1A
06
1:
0>
0A
0/
10
01
0'
1&
0%
1>
1B
11
12
1%
1$
0B
02
0$
#225000
b1101 !
15
0(
16
1/
1'
#230000
b1111 !
b1110 !
05
17
1(
0=
06
0:
1A
0/
00
0'
0&
0>
01
0%
1B
12
1$
#235000
b1111 !
15
0(
16
1/
1'
#240000
b1011 "
b111 !
b11 !
b1 !
b0 !
05
07
0;
0?
14
1(
1=
0A
1:
1>
0B
1E
10
11
02
1&
1%
0$
0>
1B
01
12
0%
1$
0F
03
0#
#245000
b1 !
15
0(
19
06
0=
0/
0'
0:
00
0&
1>
11
1%
#250000
b11 !
b10 !
05
17
1(
09
16
1:
1/
10
1'
1&
0:
00
0&
#255000
b11 !
15
0(
19
06
0/
0'
1:
10
1&
#260000
b111 !
b101 !
b100 !
05
07
1;
1(
09
1A
16
0:
0>
1=
0E
1/
00
01
1'
0&
0%
1:
0B
0A
10
02
1&
0$
1>
1F
1E
11
13
1%
1#
1B
12
1$
0F
03
0#
#265000
b101 !
15
0(
19
06
0=
0/
0'
0:
1A
00
0&
0>
0E
01
0%
0B
02
0$
1F
13
1#
#270000
b111 !
b110 !
05
17
1(
09
16
1:
1/
10
1'
1&
0:
00
0&
#275000
b111 !
15
0(
19
06
0/
0'
1:
10
1&
#280000
b1111 !
b1011 !
b1001 !
b1000 !
05
07
0;
1?
1(
09
0A
16
0:
1>
1B
1=
1/
00
11
12
1'
0&
1%
1$
1:
0B
10
02
1&
0$
0>
01
0%
#285000
b1001 !
15
0(
19
06
0=
0/
0'
0:
00
0&
1>
11
1%
#290000
b1011 !
b1010 !
05
17
1(
09
16
1:
1/
10
1'
1&
0:
00
0&
#295000
b1011 !
15
0(
19
06
0/
0'
1:
10
1&
#300000
b1111 !
b1101 !
b1100 !
05
07
1;
1(
09
1A
16
0:
0>
1=
1/
00
01
1'
0&
0%
1:
1B
0A
10
12
1&
1$
1>
11
1%
0B
02
0$
#305000
b1101 !
15
0(
19
06
0=
0/
0'
0:
1A
00
0&
0>
01
0%
1B
12
1$
#310000
b1111 !
b1110 !
05
17
1(
09
16
1:
1/
10
1'
1&
0:
00
0&
#315000
b1111 !
15
0(
19
06
0/
0'
1:
10
1&
#320000
b1111 "
b111 "
b101 "
b100 "
b111 !
b11 !
b1 !
b0 !
05
07
0;
0?
04
08
1<
0@
1(
09
1=
1E
0A
0:
1>
0F
00
11
03
0&
1%
0#
0B
02
0$
#325000
b1 !
15
0(
16
1/
1'
#330000
b11 !
b10 !
05
17
1(
06
1:
0/
10
0'
1&
#335000
b11 !
15
0(
16
1/
1'
#340000
b111 !
b101 !
b100 !
05
07
1;
1(
1A
06
0:
0>
0/
00
01
0'
0&
0%
1B
12
1$
#345000
b101 !
15
0(
16
1/
1'
#350000
b111 !
b110 !
05
17
1(
06
1:
0/
10
0'
1&
#355000
b111 !
15
0(
16
1/
1'
#360000
b1111 !
b1011 !
b1001 !
b1000 !
05
07
0;
1?
1(
0A
0E
06
0:
1>
0B
1E
0/
00
11
02
0'
0&
1%
0$
1B
1F
12
13
1$
1#
0F
03
0#
#365000
b1001 !
15
0(
16
1/
1'
#370000
b1011 !
b1010 !
05
17
1(
06
1:
0/
10
0'
1&
#375000
b1011 !
15
0(
16
1/
1'
#380000
b1111 !
b1101 !
b1100 !
05
07
1;
1(
1A
06
0:
0>
0E
0/
00
01
0'
0&
0%
0B
02
0$
1F
13
1#
#385000
b1101 !
15
0(
16
1/
1'
#390000
b1111 !
b1110 !
05
17
1(
06
1:
0/
10
0'
1&
#395000
b1111 !
15
0(
16
1/
1'
#400000
b101 "
b111 !
b11 !
b1 !
b0 !
05
07
0;
0?
14
1(
0A
1E
0:
1>
1B
00
11
12
0&
1%
1$
0B
0F
02
03
0$
0#
#405000
b1 !
15
0(
19
06
0/
0'
1:
10
1&
#410000
b11 !
b10 !
05
17
1(
09
0=
16
0:
1=
1A
1/
00
1'
0&
1:
0>
0A
10
01
1&
0%
1>
1B
11
12
1%
1$
0B
02
0$
#415000
b11 !
15
0(
19
06
0=
0/
0'
0:
1A
00
0&
0>
01
0%
1B
12
1$
#420000
b111 !
b101 !
b100 !
05
07
1;
1(
09
1=
16
1:
1>
1/
10
11
1'
1&
1%
0:
0>
00
01
0&
0%
#425000
b101 !
15
0(
19
06
0/
0'
1:
10
1&
#430000
b111 !
b110 !
05
17
1(
09
0=
16
0:
1=
1/
00
1'
0&
1:
1>
10
11
1&
1%
0>
01
0%
#435000
b111 !
15
0(
19
06
0=
0/
0'
0:
00
0&
1>
11
1%
#440000
b1111 !
b1011 !
b1001 !
b1000 !
05
07
0;
1?
1(
09
1=
0E
16
1:
0>
0B
0A
1/
10
01
02
1'
1&
0%
0$
0:
1>
1F
1E
00
11
13
0&
1%
1#
1B
12
1$
0F
03
0#
#445000
b1001 !
15
0(
19
06
0/
0'
1:
10
1&
#450000
b1011 !
b1010 !
05
17
1(
09
0=
16
0:
1=
1A
1/
00
1'
0&
1:
0>
0A
0E
10
01
1&
0%
1>
0B
1E
11
02
1%
0$
1B
1F
12
13
1$
1#
0F
03
0#
#455000
b1011 !
15
0(
19
06
0=
0/
0'
0:
1A
00
0&
0>
0E
01
0%
0B
02
0$
1F
13
1#
#460000
b1111 !
b1101 !
b1100 !
05
07
1;
1(
09
1=
16
1:
1>
1/
10
11
1'
1&
1%
0:
0>
00
01
0&
0%
#465000
b1101 !
15
0(
19
06
0/
0'
1:
10
1&
#470000
b1111 !
b1110 !
05
17
1(
09
0=
16
0:
1=
1/
00
1'
0&
1:
1>
10
11
1&
1%
0>
01
0%
#475000
b1111 !
15
0(
19
06
0=
0/
0'
0:
00
0&
1>
11
1%
#480000
b1101 "
b1111 "
b1110 "
b111 !
b11 !
b1 !
b0 !
05
07
0;
0?
04
18
1@
1(
09
0>
1=
01
0%
1:
0A
10
1&
1>
1E
11
1%
1B
12
1$
0F
03
0#
#485000
b1 !
15
0(
16
1/
1'
#490000
b11 !
b10 !
05
17
1(
0=
06
0:
1A
0/
00
0'
0&
0>
0E
01
0%
0B
02
0$
1F
13
1#
#495000
b11 !
15
0(
16
1/
1'
#499000
b1010 "
b10 "
b0 "
b1 !
b0 !
05
07
08
0<
0@
1(
1=
0A
1E
06
1>
1B
0/
11
12
0'
1%
1$
0>
0B
0F
01
02
03
0%
0$
0#
#640000
b10000 "
1D
0(
1F
13
1#
#1280000
b0 "
0D
1(
0F
03
0#
#1920000
b10000 "
1D
0(
1F
13
1#
#2560000
b0 "
0D
1(
0F
03
0#
#3200000
b10000 "
1D
0(
1F
13
1#
#3840000
b0 "
0D
1(
0F
03
0#
#4480000
b10000 "
1D
0(
1F
13
1#
#5120000
b0 "
0D
1(
0F
03
0#
#5760000
b10000 "
1D
0(
1F
13
1#
#6400000
b0 "
0D
1(
0F
03
0#
#7040000
b10000 "
1D
0(
1F
13
1#
#7680000
b0 "
0D
1(
0F
03
0#
#8320000
b10000 "
1D
0(
1F
13
1#
#8960000
b0 "
0D
1(
0F
03
0#
#9600000
b10000 "
1D
0(
1F
13
1#
