15_Decoder_3_6/simulation/qsim/Decoder3_6.msim.vcd
$comment
	File created using the following command:
		vcd file Decoder3_6.msim.vcd -direction
$end
$date
	Wed Oct 16 15:45:04 2019
$end
$version
	ModelSim Version 10.1d
$end
$timescale
	1ps
$end
$scope module Decoder3_6_vlg_vec_tst $end
$var reg 3 ! entrada [2:0] $end
$var wire 1 " salida [5] $end
$var wire 1 # salida [4] $end
$var wire 1 $ salida [3] $end
$var wire 1 % salida [2] $end
$var wire 1 & salida [1] $end
$var wire 1 ' salida [0] $end
$var wire 1 ( sampler $end
$scope module i1 $end
$var wire 1 ) gnd $end
$var wire 1 * vcc $end
$var wire 1 + unknown $end
$var tri1 1 , devclrn $end
$var tri1 1 - devpor $end
$var tri1 1 . devoe $end
$var wire 1 / salida[0]~output_o $end
$var wire 1 0 salida[1]~output_o $end
$var wire 1 1 salida[2]~output_o $end
$var wire 1 2 salida[3]~output_o $end
$var wire 1 3 salida[4]~output_o $end
$var wire 1 4 salida[5]~output_o $end
$var wire 1 5 entrada[2]~input_o $end
$var wire 1 6 entrada[0]~input_o $end
$var wire 1 7 Mux3~0_combout $end
$var wire 1 8 entrada[1]~input_o $end
$var wire 1 9 Mux2~0_combout $end
$var wire 1 : Mux0~0_combout $end
$upscope $end
$upscope $end
$enddefinitions $end
#0
$dumpvars
b0 !
0'
0&
1%
1$
0#
0"
x(
0)
1*
x+
1,
1-
1.
0/
00
11
12
03
04
05
06
07
08
19
0:
$end
#5000
b1 !
0(
16
14
1"
#10000
b11 !
b10 !
18
1(
06
04
0"
09
02
01
0$
0%
#15000
b11 !
0(
16
14
1"
19
12
11
1$
1%
#20000
b111 !
b101 !
b100 !
08
1(
06
15
04
1/
0"
1'
1:
17
13
10
1#
1&
#25000
b101 !
0(
16
14
1"
07
00
0&
#30000
b111 !
b110 !
18
1(
06
04
0"
0:
09
17
03
02
01
10
0#
0$
0%
1&
#35000
b111 !
0(
16
14
1"
19
07
12
11
00
1$
1%
0&
#40000
b11 !
b1 !
b0 !
08
1(
06
05
04
0/
0"
0'
#45000
b1 !
0(
16
14
1"
#50000
b11 !
b10 !
18
1(
06
04
0"
09
02
01
0$
0%
#55000
b11 !
0(
16
14
1"
19
12
11
1$
1%
#60000
b111 !
b101 !
b100 !
08
1(
06
15
04
1/
0"
1'
1:
17
13
10
1#
1&
#65000
b101 !
0(
16
14
1"
07
00
0&
#70000
b111 !
b110 !
18
1(
06
04
0"
0:
09
17
03
02
01
10
0#
0$
0%
1&
#75000
b111 !
0(
16
14
1"
19
07
12
11
00
1$
1%
0&
#80000
b11 !
b1 !
b0 !
08
1(
06
05
04
0/
0"
0'
#85000
b1 !
0(
16
14
1"
#90000
b11 !
b10 !
18
1(
06
04
0"
09
02
01
0$
0%
#95000
b11 !
0(
16
14
1"
19
12
11
1$
1%
