32_Proyectos/100_Proyecto_ALU4bits/simulation/qsim/Alu2.msim.vcd
$comment
	File created using the following command:
		vcd file Alu2.msim.vcd -direction
$end
$date
	Thu Oct 17 12:00:52 2019
$end
$version
	ModelSim Version 10.1d
$end
$timescale
	1ps
$end
$scope module Alu2_vlg_vec_tst $end
$var reg 4 ! A [3:0] $end
$var reg 4 " B [3:0] $end
$var reg 3 # sel [2:0] $end
$var wire 1 $ acarreo $end
$var wire 1 % S [3] $end
$var wire 1 & S [2] $end
$var wire 1 ' S [1] $end
$var wire 1 ( S [0] $end
$var wire 1 ) sampler $end
$scope module i1 $end
$var wire 1 * gnd $end
$var wire 1 + vcc $end
$var wire 1 , unknown $end
$var tri1 1 - devclrn $end
$var tri1 1 . devpor $end
$var tri1 1 / devoe $end
$var wire 1 0 SUBTRACT1|ss[0]~0_combout $end
$var wire 1 1 SUBTRACT1|ss[1]~2_combout $end
$var wire 1 2 SUBTRACT1|ss[2]~4_combout $end
$var wire 1 3 ADD1|Add0~0_combout $end
$var wire 1 4 ADD1|Add0~3_combout $end
$var wire 1 5 DECREMENT1|Add0~0_combout $end
$var wire 1 6 MUX1|Mux2~1_combout $end
$var wire 1 7 ADD1|Add0~6_combout $end
$var wire 1 8 ADD1|Add0~9_combout $end
$var wire 1 9 S[0]~output_o $end
$var wire 1 : S[1]~output_o $end
$var wire 1 ; S[2]~output_o $end
$var wire 1 < S[3]~output_o $end
$var wire 1 = acarreo~output_o $end
$var wire 1 > B[0]~input_o $end
$var wire 1 ? sel[0]~input_o $end
$var wire 1 @ A[0]~input_o $end
$var wire 1 A sel[2]~input_o $end
$var wire 1 B MUX1|Mux3~1_combout $end
$var wire 1 C MUX1|Mux3~2_combout $end
$var wire 1 D ADD1|Add0~1_combout $end
$var wire 1 E MUX1|Mux3~0_combout $end
$var wire 1 F sel[1]~input_o $end
$var wire 1 G MUX1|Mux3~3_combout $end
$var wire 1 H A[1]~input_o $end
$var wire 1 I ADD1|Add0~2 $end
$var wire 1 J ADD1|Add0~4_combout $end
$var wire 1 K MUX1|Mux2~0_combout $end
$var wire 1 L B[1]~input_o $end
$var wire 1 M MUX1|Mux2~2_combout $end
$var wire 1 N MUX1|Mux2~3_combout $end
$var wire 1 O A[2]~input_o $end
$var wire 1 P DECREMENT1|Add0~1_combout $end
$var wire 1 Q MUX1|Mux1~1_combout $end
$var wire 1 R MUX1|Mux1~2_combout $end
$var wire 1 S ADD1|Add0~5 $end
$var wire 1 T ADD1|Add0~7_combout $end
$var wire 1 U MUX1|Mux1~0_combout $end
$var wire 1 V MUX1|Mux1~3_combout $end
$var wire 1 W A[3]~input_o $end
$var wire 1 X DECREMENT1|Add0~2_combout $end
$var wire 1 Y B[2]~input_o $end
$var wire 1 Z SUBTRACT1|ss[0]~1 $end
$var wire 1 [ SUBTRACT1|ss[1]~3 $end
$var wire 1 \ SUBTRACT1|ss[2]~5 $end
$var wire 1 ] SUBTRACT1|ss[3]~6_combout $end
$var wire 1 ^ MUX1|Mux0~1_combout $end
$var wire 1 _ B[3]~input_o $end
$var wire 1 ` MUX1|Mux0~2_combout $end
$var wire 1 a ADD1|Add0~8 $end
$var wire 1 b ADD1|Add0~10_combout $end
$var wire 1 c MUX1|Mux0~0_combout $end
$var wire 1 d MUX1|Mux0~3_combout $end
$var wire 1 e ADD1|Add0~11 $end
$var wire 1 f ADD1|Add0~12_combout $end
$var wire 1 g Mux0~0_combout $end
$var wire 1 h SUBTRACT1|ss[3]~7 $end
$var wire 1 i SUBTRACT1|Add0~0_combout $end
$var wire 1 j Mux0~1_combout $end
$var wire 1 k Mux0~2_combout $end
$upscope $end
$upscope $end
$enddefinitions $end
#0
$dumpvars
b1110 !
b101 "
b0 #
0$
1(
0'
0&
1%
x)
0*
1+
x,
1-
1.
1/
10
01
02
13
04
15
06
07
08
19
0:
0;
1<
0=
1>
0?
0@
0A
1B
1C
1D
1E
0F
1G
1H
0I
1J
1K
0L
0M
0N
1O
0P
0Q
0R
1S
1T
1U
0V
1W
0X
1Y
0Z
0[
1\
1]
1^
0_
1`
0a
1b
1c
1d
1e
0f
1g
0h
1i
1j
0k
$end
#5000
b1 #
b1100 !
b1101 "
b1001 "
0Y
1_
0H
1?
0)
1R
12
0]
1P
0J
05
1[
11
0c
0^
0U
0B
02
0`
1V
1;
1&
0d
0<
0%
#10000
b11 #
b100 !
b0 !
b1 !
b10 #
1@
0O
0W
0?
1F
1)
1X
1I
0D
0C
1B
15
1Z
00
1U
0T
0R
0\
12
1c
0b
1h
1]
0K
16
0V
1N
1^
1J
0E
1C
0[
01
0B
0U
0]
1Q
0c
0i
1M
0;
1:
0&
1'
1V
1d
0N
1`
1K
1\
02
06
0C
0^
1R
0j
1;
1<
0:
1&
1%
0'
0G
0V
0d
1]
0Q
0M
0`
09
0;
0<
0(
0&
0%
1N
1^
0R
1:
1'
1`
#15000
b1000 "
b11 !
b0 "
b100 "
b11 #
1?
1H
0>
1Y
0_
0)
1c
0`
0^
1U
1R
1M
0K
1C
0S
0J
05
11
10
0\
12
0h
0]
1T
1h
1]
1i
1d
1V
0N
0i
1j
1<
1;
0:
1%
1&
0'
0j
#20000
b111 #
b110 "
b101 #
b111 !
b110 !
b10 "
b100 #
0@
1O
1L
0Y
0?
0F
1A
1)
0P
0I
1D
0C
1B
15
00
1a
0T
0R
1\
0M
14
01
0c
16
1j
03
1k
0d
1N
1G
1Q
1E
1C
06
1b
0U
0h
0]
1M
0D
1=
0<
1:
19
1$
0%
1'
1(
0G
0V
0N
0k
1R
0M
1c
1i
0E
09
0;
0:
0=
0(
0&
0'
0$
1G
1N
19
1:
1(
1'
1V
0N
1;
0:
1&
0'
#25000
b11 "
b1 "
b10 !
b101 "
b101 #
1?
0O
1>
0L
1Y
0)
0c
1^
1M
16
0a
1T
1P
0\
13
0Z
10
04
11
17
0b
1h
1]
1D
01
1S
1J
1a
0T
1N
0i
0a
1T
1b
1:
1'
0b
#30000
b0 !
b111 #
b111 "
b11 "
b110 #
1L
0Y
0?
1F
0H
1)
14
1[
07
1\
02
1`
0^
1U
0Q
1K
1E
06
0g
0X
0P
0J
05
0V
0N
0G
1J
0\
12
0T
0h
0]
1Q
0`
0R
0M
0j
1^
0K
16
0;
0:
09
0&
0'
0(
1V
1N
1G
1K
1h
1]
0U
1i
1R
1`
1M
1;
1:
19
1&
1'
1(
0N
0i
0:
0'
1N
0V
1:
0;
1'
0&
#35000
b1011 "
b1010 "
b100 !
b110 !
b1000 "
b1100 "
b111 #
1?
1H
1O
0>
0L
1Y
1_
0)
0K
0E
0C
1g
1X
0S
0J
15
0[
1T
03
1Z
00
04
17
0]
18
1j
1a
1\
02
0D
11
1S
1J
1b
0N
0G
0e
0b
1]
0T
0:
09
0'
0(
1f
#40000
b11 #
b1 #
b100 !
b1110 "
b0 #
1L
0H
0?
0F
0A
1)
1[
1P
1K
0J
05
0Q
1C
0B
0j
08
07
13
1d
1V
1N
0\
12
0K
0R
0C
1e
1b
0a
1T
1D
1<
1;
1:
1%
1&
1'
1G
1k
0]
1Q
0f
1c
0b
1U
1E
19
1=
1(
1$
0V
0G
0^
1R
0c
0;
09
0&
0(
0`
1V
1;
1&
0d
0<
0%
#45000
b1100 !
b1111 "
b1011 "
b1001 "
b1 #
1?
1>
0L
0Y
1W
0)
0U
0Q
0M
1K
1C
06
0Z
10
0[
01
1\
02
1b
1]
0X
0k
1[
11
12
0h
0]
0=
0$
0N
1G
02
1i
0:
19
0'
1(
1j
#50000
b1101 !
b1 "
b11 #
b1111 !
b0 "
b10 #
0?
1F
0>
0_
1@
1H
1)
1c
1U
0R
0K
0C
1B
16
1Z
1]
0P
1I
0D
1J
0[
01
0V
1N
1C
1M
11
1^
0S
0J
0E
1K
12
06
0;
1:
0&
1'
1d
1V
0N
16
1`
1a
0T
0K
1Q
0M
1<
1;
0:
1%
1&
0'
0G
1N
1M
0e
0b
0U
1R
09
1:
0(
1'
0N
1f
0c
0:
0'
0V
0;
0&
1k
0d
1=
0<
1$
0%
#55000
b111 !
b100 "
b110 "
b110 !
b1110 "
b1111 "
b11 #
1?
1>
1L
1Y
1_
0@
0W
0)
1c
0^
0Q
1E
0B
06
0Z
01
02
1h
1X
0I
1D
15
1e
1b
0k
0R
0M
1[
11
0i
1S
1J
0f
0=
0$
1d
1G
0\
12
0j
0a
1T
1<
19
1%
1(
0]
0b
#60000
b10 !
b111 #
b101 #
b0 !
b1000 !
b111 "
b110 "
b100 #
0>
0_
0?
0F
1A
0H
0O
1W
1)
0C
03
1Z
00
0`
0h
0c
1U
1Q
1K
1B
1j
17
14
0J
05
01
0T
02
1b
1k
0D
11
1i
1R
1C
1T
1J
0K
16
0U
1c
1=
1$
0G
0d
0k
0E
1U
1K
1M
09
0<
0=
0(
0%
0$
1V
1G
1;
19
1&
1(
1N
1:
1'
#65000
b100 "
b0 !
b1100 "
b1101 "
b101 #
1?
0W
1>
0L
1_
0)
0c
1`
1^
0U
0M
0K
0g
0b
1h
0X
13
0Z
10
04
0[
01
18
0j
0i
1D
1[
11
0J
12
1b
1d
0N
02
1<
0:
1%
0'
#70000
b1 !
b111 #
b11 !
b1100 "
b110 #
0>
0?
1F
1@
1H
1)
03
1Z
1c
1U
1M
1E
0B
1g
1X
1P
1I
0D
1J
0[
01
0d
0V
0G
0I
1D
11
0C
1j
0^
0Q
0S
0J
0E
1K
12
0<
0;
09
0%
0&
0(
1d
1V
1G
1S
1J
1E
0`
0R
1a
0T
0K
1<
1;
19
1%
1&
1(
0G
1N
0a
1T
1K
0e
0b
0U
09
1:
0(
1'
1G
0N
1e
1b
1U
1f
0c
19
0:
1(
0'
1N
0V
0f
1c
1:
0;
1'
0&
1V
1k
0d
1;
1=
0<
1&
1$
0%
0k
1d
0=
1<
0$
1%
#75000
b111 !
b1111 !
b1101 !
b1101 "
b111 #
1?
1>
0H
1O
1W
0)
0c
1^
0U
1Q
0M
0K
0E
1B
13
00
0X
0P
0J
15
01
1a
0T
1\
02
0e
0b
1]
1`
1R
1C
1I
0D
1b
0h
0]
1f
0d
0V
0N
0G
1J
1i
0<
0;
0:
09
0%
0&
0'
0(
#80000
b1001 "
b11 #
b1 "
b1 #
b101 !
b111 !
b0 #
1H
0W
0?
0F
0A
0Y
0_
1)
1X
1M
1K
0S
0J
05
11
1c
0b
0^
0Q
0B
06
08
07
12
1d
1V
1G
0K
16
0c
0`
0R
0C
0M
1e
1b
1Q
1<
1;
19
1%
1&
1(
1N
1M
0f
1c
1R
1:
1'
0N
0d
0V
0G
0:
0<
0;
09
0'
0%
0&
0(
1N
1V
1:
1;
1'
1&
#85000
b11 "
b11 !
b111 "
b1011 !
b1001 !
b1 #
1?
0H
0O
1W
1L
1Y
0)
0c
1`
1U
0Q
1K
06
0X
1P
1S
1J
15
1[
0a
1T
0\
0e
0b
1]
0T
02
1e
1b
0]
1f
1d
0f
1<
1%
#90000
b1000 !
b110 "
b11 #
b1100 !
b100 !
b10 #
0?
1F
0>
0@
1O
0W
1)
1c
0`
0U
0R
0M
16
1X
0I
1D
05
1T
12
0b
1h
1]
0d
1M
1^
0J
1E
1U
1Q
0c
0i
0<
0%
1d
0V
1`
0K
1R
0j
1<
0;
1%
0&
1G
1V
0d
19
1;
0<
1(
1&
0%
0N
0:
0'
#95000
b1110 "
b1100 "
b101 !
b1 !
b1001 !
b11 #
1?
1@
0O
1W
0L
1_
0)
0^
0Q
0M
1K
0E
1C
06
0X
1I
0D
15
10
0T
02
1b
0[
01
0`
1J
12
1N
0G
1:
09
1'
0(
