03_CompuertaAND/simulation/qsim/compuertaAND.msim.vcd
$comment
	File created using the following command:
		vcd file compuertaAND.msim.vcd -direction
$end
$date
	Tue Oct 15 17:34:17 2019
$end
$version
	ModelSim Version 10.1d
$end
$timescale
	1ps
$end
$scope module compuertaAND_vlg_vec_tst $end
$var reg 1 ! a $end
$var reg 1 " b $end
$var wire 1 # f $end
$var wire 1 $ sampler $end
$scope module i1 $end
$var wire 1 % gnd $end
$var wire 1 & vcc $end
$var wire 1 ' unknown $end
$var tri1 1 ( devclrn $end
$var tri1 1 ) devpor $end
$var tri1 1 * devoe $end
$var wire 1 + f~output_o $end
$var wire 1 , a~input_o $end
$var wire 1 - b~input_o $end
$var wire 1 . f~0_combout $end
$upscope $end
$upscope $end
$enddefinitions $end
#0
$dumpvars
0!
0"
0#
x$
0%
1&
x'
1(
1)
1*
0+
0,
0-
0.
$end
#100000
1!
1,
0$
#200000
1"
0!
1-
0,
1$
#300000
1!
1,
0$
1.
1+
1#
#400000
0"
0!
0-
0,
1$
0.
0+
0#
#500000
1!
1,
0$
#600000
1"
0!
1-
0,
1$
#700000
1!
1,
0$
1.
1+
1#
#800000
0"
0!
0-
0,
1$
0.
0+
0#
#900000
1!
1,
0$
