20_Sumador_SumaResta/simulation/qsim/SumaResta.msim.vcd
$comment
	File created using the following command:
		vcd file SumaResta.msim.vcd -direction
$end
$date
	Tue Oct 15 18:44:45 2019
$end
$version
	ModelSim Version 10.1d
$end
$timescale
	1ps
$end
$scope module SumaResta_vlg_vec_tst $end
$var reg 4 ! a [3:0] $end
$var reg 4 " b [3:0] $end
$var reg 1 # SoR $end
$var wire 1 $ cout $end
$var wire 1 % resultado [3] $end
$var wire 1 & resultado [2] $end
$var wire 1 ' resultado [1] $end
$var wire 1 ( resultado [0] $end
$var wire 1 ) sampler $end
$scope module i1 $end
$var wire 1 * gnd $end
$var wire 1 + vcc $end
$var wire 1 , unknown $end
$var tri1 1 - devclrn $end
$var tri1 1 . devpor $end
$var tri1 1 / devoe $end
$var wire 1 0 cout~output_o $end
$var wire 1 1 resultado[0]~output_o $end
$var wire 1 2 resultado[1]~output_o $end
$var wire 1 3 resultado[2]~output_o $end
$var wire 1 4 resultado[3]~output_o $end
$var wire 1 5 SoR~input_o $end
$var wire 1 6 a[3]~input_o $end
$var wire 1 7 a[2]~input_o $end
$var wire 1 8 b[1]~input_o $end
$var wire 1 9 Add1|auto_generated|_~2_combout $end
$var wire 1 : a[0]~input_o $end
$var wire 1 ; Add1|auto_generated|result_int[0]~1_cout $end
$var wire 1 < Add1|auto_generated|result_int[1]~3 $end
$var wire 1 = Add1|auto_generated|result_int[2]~5 $end
$var wire 1 > Add1|auto_generated|result_int[3]~7 $end
$var wire 1 ? Add1|auto_generated|result_int[4]~9 $end
$var wire 1 @ Add1|auto_generated|result_int[5]~10_combout $end
$var wire 1 A b[0]~input_o $end
$var wire 1 B Add1|auto_generated|_~3_combout $end
$var wire 1 C Add1|auto_generated|result_int[1]~2_combout $end
$var wire 1 D a[1]~input_o $end
$var wire 1 E Add1|auto_generated|result_int[2]~4_combout $end
$var wire 1 F b[2]~input_o $end
$var wire 1 G Add1|auto_generated|_~1_combout $end
$var wire 1 H Add1|auto_generated|result_int[3]~6_combout $end
$var wire 1 I b[3]~input_o $end
$var wire 1 J Add1|auto_generated|_~0_combout $end
$var wire 1 K Add1|auto_generated|result_int[4]~8_combout $end
$upscope $end
$upscope $end
$enddefinitions $end
#0
$dumpvars
b0 !
b0 "
1#
0$
0(
0'
0&
0%
x)
0*
1+
x,
1-
1.
1/
00
01
02
03
04
15
06
07
08
19
0:
1;
0<
1=
0>
1?
0@
0A
1B
0C
0D
0E
0F
1G
0H
0I
1J
0K
$end
#5000
b1 !
1:
0)
1C
11
1(
#10000
b11 !
b10 !
0:
1D
1)
0C
1E
01
12
0(
1'
#15000
b11 !
1:
0)
1C
11
1(
#20000
b111 !
b101 !
b100 !
0:
0D
17
1)
0C
0E
1H
01
02
13
0(
0'
1&
#25000
b101 !
1:
0)
1C
11
1(
#30000
b111 !
b110 !
0:
1D
1)
0C
1E
01
12
0(
1'
#35000
b111 !
1:
0)
1C
11
1(
#40000
b1111 !
b1011 !
b1001 !
b1000 !
0:
0D
07
16
1)
0C
0E
0H
1K
01
02
03
14
0(
0'
0&
1%
#45000
b1001 !
1:
0)
1C
11
1(
#50000
b1011 !
b1010 !
0:
1D
1)
0C
1E
01
12
0(
1'
#55000
b1011 !
1:
0)
1C
11
1(
#60000
b1111 !
b1101 !
b1100 !
0:
0D
17
1)
0C
0E
1H
01
02
13
0(
0'
1&
#65000
b1101 !
1:
0)
1C
11
1(
#70000
b1111 !
b1110 !
0:
1D
1)
0C
1E
01
12
0(
1'
#75000
b1111 !
1:
0)
1C
11
1(
#80000
b1 "
b111 !
b11 !
b1 !
b0 !
0:
0D
07
06
1A
1)
0B
0C
0E
0H
0K
1<
01
02
03
04
0(
0'
0&
0%
1C
0=
11
1(
1E
1>
12
1'
1H
0?
13
1&
1K
14
1%
1@
10
1$
#85000
b1 !
1:
0)
0<
0C
1=
01
0(
0E
0>
02
0'
0H
1?
03
0&
0K
04
0%
0@
00
0$
#90000
b11 !
b10 !
0:
1D
1)
1<
1C
1E
11
12
1(
1'
0E
02
0'
#95000
b11 !
1:
0)
0<
0C
01
0(
1E
12
1'
#100000
b111 !
b101 !
b100 !
0:
0D
17
1)
1<
1C
0E
1H
0=
11
02
13
1(
0'
1&
1E
12
1'
0H
03
0&
#105000
b101 !
1:
0)
0<
0C
1=
01
0(
0E
02
0'
1H
13
1&
#110000
b111 !
b110 !
0:
1D
1)
1<
1C
1E
11
12
1(
1'
0E
02
0'
#115000
b111 !
1:
0)
0<
0C
01
0(
1E
12
1'
#120000
b1111 !
b1011 !
b1001 !
b1000 !
0:
0D
07
16
1)
1<
1C
0E
0H
1K
0=
11
02
03
14
1(
0'
0&
1%
1E
1>
12
1'
1H
13
1&
0K
04
0%
#125000
b1001 !
1:
0)
0<
0C
1=
01
0(
0E
0>
02
0'
0H
03
0&
1K
14
1%
#130000
b1011 !
b1010 !
0:
1D
1)
1<
1C
1E
11
12
1(
1'
0E
02
0'
#135000
b1011 !
1:
0)
0<
0C
01
0(
1E
12
1'
#140000
b1111 !
b1101 !
b1100 !
0:
0D
17
1)
1<
1C
0E
1H
0=
11
02
13
1(
0'
1&
1E
12
1'
0H
03
0&
#145000
b1101 !
1:
0)
0<
0C
1=
01
0(
0E
02
0'
1H
13
1&
#150000
b1111 !
b1110 !
0:
1D
1)
1<
1C
1E
11
12
1(
1'
0E
02
0'
#155000
b1111 !
1:
0)
0<
0C
01
0(
1E
12
1'
#160000
b11 "
b10 "
b111 !
b11 !
b1 !
b0 !
0:
0D
07
06
0A
18
1)
1<
1B
09
1C
0E
0H
0K
0=
0<
11
02
03
04
1(
0'
0&
0%
0C
1>
01
0(
1H
1E
0?
13
12
1&
1'
1K
14
1%
1@
10
1$
#165000
b1 !
1:
0)
1C
11
1(
#170000
b11 !
b10 !
0:
1D
1)
1=
0C
0E
0>
01
02
0(
0'
0H
1?
03
0&
0K
04
0%
0@
00
0$
#175000
b11 !
1:
0)
1C
11
1(
#180000
b111 !
b101 !
b100 !
0:
0D
17
1)
0=
0C
1E
1H
01
12
13
0(
1'
1&
0H
03
0&
#185000
b101 !
1:
0)
1C
11
1(
#190000
b111 !
b110 !
0:
1D
1)
1=
0C
0E
01
02
0(
0'
1H
13
1&
#195000
b111 !
1:
0)
1C
11
1(
#200000
b1111 !
b1011 !
b1001 !
b1000 !
0:
0D
07
16
1)
0=
0C
1E
0H
1K
1>
01
12
03
14
0(
1'
0&
1%
1H
13
1&
0K
04
0%
#205000
b1001 !
1:
0)
1C
11
1(
#210000
b1011 !
b1010 !
0:
1D
1)
1=
0C
0E
0>
01
02
0(
0'
0H
03
0&
1K
14
1%
#215000
b1011 !
1:
0)
1C
11
1(
#220000
b1111 !
b1101 !
b1100 !
0:
0D
17
1)
0=
0C
1E
1H
01
12
13
0(
1'
1&
0H
03
0&
#225000
b1101 !
1:
0)
1C
11
1(
#230000
b1111 !
b1110 !
0:
1D
1)
1=
0C
0E
01
02
0(
0'
1H
13
1&
#235000
b1111 !
1:
0)
1C
11
1(
#240000
b11 "
b111 !
b11 !
b1 !
b0 !
0:
0D
07
06
1A
1)
0=
0B
0C
1E
0H
0K
1>
1<
01
12
03
04
0(
1'
0&
0%
1H
1C
0?
13
11
1&
1(
1K
0E
14
02
1%
0'
1@
10
1$
#245000
b1 !
1:
0)
0<
0C
01
0(
1E
12
1'
#250000
b11 !
b10 !
0:
1D
1)
1<
1=
1C
0E
0=
0>
11
02
1(
0'
1E
0H
1>
1?
12
03
1'
0&
1H
0K
0?
13
04
1&
0%
1K
0@
14
00
1%
0$
1@
10
1$
#255000
b11 !
1:
0)
0<
0C
1=
01
0(
0E
0>
02
0'
0H
1?
03
0&
0K
04
0%
0@
00
0$
#260000
b111 !
b101 !
b100 !
0:
0D
17
1)
1<
0=
1C
1E
1H
11
12
13
1(
1'
1&
0E
0H
02
03
0'
0&
#265000
b101 !
1:
0)
0<
0C
01
0(
1E
12
1'
#270000
b111 !
b110 !
0:
1D
1)
1<
1=
1C
0E
0=
11
02
1(
0'
1E
1H
12
13
1'
1&
0H
03
0&
#275000
b111 !
1:
0)
0<
0C
1=
01
0(
0E
02
0'
1H
13
1&
#280000
b1111 !
b1011 !
b1001 !
b1000 !
0:
0D
07
16
1)
1<
0=
1C
1E
0H
1K
1>
11
12
03
14
1(
1'
0&
1%
0E
1H
02
13
0'
1&
0K
04
0%
#285000
b1001 !
1:
0)
0<
0C
01
0(
1E
12
1'
#290000
b1011 !
b1010 !
0:
1D
1)
1<
1=
1C
0E
0=
0>
11
02
1(
0'
1E
0H
1>
12
03
1'
0&
1H
1K
13
14
1&
1%
0K
04
0%
#295000
b1011 !
1:
0)
0<
0C
1=
01
0(
0E
0>
02
0'
0H
03
0&
1K
14
1%
#300000
b1111 !
b1101 !
b1100 !
0:
0D
17
1)
1<
0=
1C
1E
1H
11
12
13
1(
1'
1&
0E
0H
02
03
0'
0&
#305000
b1101 !
1:
0)
0<
0C
01
0(
1E
12
1'
#310000
b1111 !
b1110 !
0:
1D
1)
1<
1=
1C
0E
0=
11
02
1(
0'
1E
1H
12
13
1'
1&
0H
03
0&
#315000
b1111 !
1:
0)
0<
0C
1=
01
0(
0E
02
0'
1H
13
1&
#320000
b111 "
b101 "
b100 "
b111 !
b11 !
b1 !
b0 !
0:
0D
07
06
0A
08
1F
1)
1<
0=
1B
19
0G
1C
1E
0H
0K
1>
0<
11
12
03
04
1(
1'
0&
0%
0C
0?
1=
01
0(
1K
0E
14
02
1%
0'
1@
1H
10
13
1$
1&
#325000
b1 !
1:
0)
1C
11
1(
#330000
b11 !
b10 !
0:
1D
1)
0C
1E
01
12
0(
1'
#335000
b11 !
1:
0)
1C
11
1(
#340000
b111 !
b101 !
b100 !
0:
0D
17
1)
0>
0C
0E
0H
1?
01
02
03
0(
0'
0&
0K
04
0%
0@
00
0$
#345000
b101 !
1:
0)
1C
11
1(
#350000
b111 !
b110 !
0:
1D
1)
0C
1E
01
12
0(
1'
#355000
b111 !
1:
0)
1C
11
1(
#360000
b1111 !
b1011 !
b1001 !
b1000 !
0:
0D
07
16
1)
1>
0C
0E
1H
1K
01
02
13
14
0(
0'
1&
1%
0K
04
0%
#365000
b1001 !
1:
0)
1C
11
1(
#370000
b1011 !
b1010 !
0:
1D
1)
0C
1E
01
12
0(
1'
#375000
b1011 !
1:
0)
1C
11
1(
#380000
b1111 !
b1101 !
b1100 !
0:
0D
17
1)
0>
0C
0E
0H
01
02
03
0(
0'
0&
1K
14
1%
#385000
b1101 !
1:
0)
1C
11
1(
#390000
b1111 !
b1110 !
0:
1D
1)
0C
1E
01
12
0(
1'
#395000
b1111 !
1:
0)
1C
11
1(
#400000
b101 "
b111 !
b11 !
b1 !
b0 !
0:
0D
07
06
1A
1)
1>
0B
0C
0E
1H
0K
0?
1<
01
02
13
04
0(
0'
1&
0%
1K
1C
0=
14
11
1%
1(
1@
1E
10
12
1$
1'
0H
03
0&
#405000
b1 !
1:
0)
0<
0C
1=
01
0(
0E
02
0'
1H
13
1&
#410000
b11 !
b10 !
0:
1D
1)
1<
1C
1E
11
12
1(
1'
0E
02
0'
#415000
b11 !
1:
0)
0<
0C
01
0(
1E
12
1'
#420000
b111 !
b101 !
b100 !
0:
0D
17
1)
1<
0>
1C
0E
0H
0=
1?
11
02
03
1(
0'
0&
1E
0K
1>
12
04
1'
0%
1H
0@
0?
13
00
1&
0$
1K
14
1%
1@
10
1$
#425000
b101 !
1:
0)
0<
0C
1=
01
0(
0E
0>
02
0'
0H
1?
03
0&
0K
04
0%
0@
00
0$
#430000
b111 !
b110 !
0:
1D
1)
1<
1C
1E
11
12
1(
1'
0E
02
0'
#435000
b111 !
1:
0)
0<
0C
01
0(
1E
12
1'
#440000
b1111 !
b1011 !
b1001 !
b1000 !
0:
0D
07
16
1)
1<
1>
1C
0E
1H
1K
0=
11
02
13
14
1(
0'
1&
1%
1E
0K
12
04
1'
0%
0H
03
0&
#445000
b1001 !
1:
0)
0<
0C
1=
01
0(
0E
02
0'
1H
13
1&
#450000
b1011 !
b1010 !
0:
1D
1)
1<
1C
1E
11
12
1(
1'
0E
02
0'
#455000
b1011 !
1:
0)
0<
0C
01
0(
1E
12
1'
#460000
b1111 !
b1101 !
b1100 !
0:
0D
17
1)
1<
0>
1C
0E
0H
0=
11
02
03
1(
0'
0&
1E
1K
1>
12
14
1'
1%
1H
13
1&
0K
04
0%
#465000
b1101 !
1:
0)
0<
0C
1=
01
0(
0E
0>
02
0'
0H
03
0&
1K
14
1%
#470000
b1111 !
b1110 !
0:
1D
1)
1<
1C
1E
11
12
1(
1'
0E
02
0'
#475000
b1111 !
1:
0)
0<
0C
01
0(
1E
12
1'
#480000
b111 "
b110 "
b111 !
b11 !
b1 !
b0 !
0:
0D
07
06
0A
18
1)
1<
1>
1B
09
1C
0E
1H
0K
0=
0?
0<
11
02
13
04
1(
0'
1&
0%
1K
0C
14
01
1%
0(
0H
1@
1E
03
10
12
0&
1$
1'
#485000
b1 !
1:
0)
1C
11
1(
#490000
b11 !
b10 !
0:
1D
1)
1=
0C
0E
01
02
0(
0'
1H
13
1&
#495000
b11 !
1:
0)
1C
11
1(
#500000
b111 !
b101 !
b100 !
0:
0D
17
1)
0=
0>
0C
1E
0H
1>
1?
01
12
03
0(
1'
0&
1H
0K
0?
13
04
1&
0%
1K
0@
14
00
1%
0$
1@
10
1$
#505000
b101 !
1:
0)
1C
11
1(
#510000
b111 !
b110 !
0:
1D
1)
1=
0C
0E
0>
01
02
0(
0'
0H
1?
03
0&
0K
04
0%
0@
00
0$
#515000
b111 !
1:
0)
1C
11
1(
#520000
b1111 !
b1011 !
b1001 !
b1000 !
0:
0D
07
16
1)
0=
1>
0C
1E
1H
1K
01
12
13
14
0(
1'
1&
1%
0H
0K
03
04
0&
0%
#525000
b1001 !
1:
0)
1C
11
1(
#530000
b1011 !
b1010 !
0:
1D
1)
1=
0C
0E
01
02
0(
0'
1H
13
1&
#535000
b1011 !
1:
0)
1C
11
1(
#540000
b1111 !
b1101 !
b1100 !
0:
0D
17
1)
0=
0>
0C
1E
0H
1>
01
12
03
0(
1'
0&
1H
1K
13
14
1&
1%
0K
04
0%
#545000
b1101 !
1:
0)
1C
11
1(
#550000
b1111 !
b1110 !
0:
1D
1)
1=
0C
0E
0>
01
02
0(
0'
0H
03
0&
1K
14
1%
#555000
b1111 !
1:
0)
1C
11
1(
#560000
b111 "
b111 !
b11 !
b1 !
b0 !
0:
0D
07
06
1A
1)
0=
1>
0B
0C
1E
1H
0K
0?
1<
01
12
13
04
0(
1'
1&
0%
0H
1K
1C
03
14
11
0&
1%
1(
1@
0E
10
02
1$
0'
#565000
b1 !
1:
0)
0<
0C
01
0(
1E
12
1'
#570000
b11 !
b10 !
0:
1D
1)
1<
1=
1C
0E
0=
11
02
1(
0'
1E
1H
12
13
1'
1&
0H
03
0&
#575000
b11 !
1:
0)
0<
0C
1=
01
0(
0E
02
0'
1H
13
1&
#580000
b111 !
b101 !
b100 !
0:
0D
17
1)
1<
0=
0>
1C
1E
0H
1>
1?
11
12
03
1(
1'
0&
0E
1H
0K
0?
02
13
04
0'
1&
0%
1K
0@
14
00
1%
0$
1@
10
1$
#585000
b101 !
1:
0)
0<
0C
01
0(
1E
12
1'
#590000
b111 !
b110 !
0:
1D
1)
1<
1=
1C
0E
0=
0>
11
02
1(
0'
1E
0H
1>
1?
12
03
1'
0&
1H
0K
0?
13
04
1&
0%
1K
0@
14
00
1%
0$
1@
10
1$
#595000
b111 !
1:
0)
0<
0C
1=
01
0(
0E
0>
02
0'
0H
1?
03
0&
0K
04
0%
0@
00
0$
#600000
b1111 !
b1011 !
b1001 !
b1000 !
0:
0D
07
16
1)
1<
0=
1>
1C
1E
1H
1K
11
12
13
14
1(
1'
1&
1%
0E
0H
0K
02
03
04
0'
0&
0%
#605000
b1001 !
1:
0)
0<
0C
01
0(
1E
12
1'
#610000
b1011 !
b1010 !
0:
1D
1)
1<
1=
1C
0E
0=
11
02
1(
0'
1E
1H
12
13
1'
1&
0H
03
0&
#615000
b1011 !
1:
0)
0<
0C
1=
01
0(
0E
02
0'
1H
13
1&
#620000
b1111 !
b1101 !
b1100 !
0:
0D
17
1)
1<
0=
0>
1C
1E
0H
1>
11
12
03
1(
1'
0&
0E
1H
1K
02
13
14
0'
1&
1%
0K
04
0%
#625000
b1101 !
1:
0)
0<
0C
01
0(
1E
12
1'
#630000
b1111 !
b1110 !
0:
1D
1)
1<
1=
1C
0E
0=
0>
11
02
1(
0'
1E
0H
1>
12
03
1'
0&
1H
1K
13
14
1&
1%
0K
04
0%
#635000
b1111 !
1:
0)
0<
0C
1=
01
0(
0E
0>
02
0'
0H
03
0&
1K
14
1%
#640000
b1111 "
b1011 "
b1001 "
b1000 "
b111 !
b11 !
b1 !
b0 !
0:
0D
07
06
0A
08
0F
1I
1)
1<
0=
1>
1B
19
1G
0J
1C
1E
1H
0K
0?
0<
11
12
13
04
1(
1'
1&
0%
0C
1=
01
0(
1@
0E
0>
10
02
1$
0'
0H
03
0&
1K
14
1%
#645000
b1 !
1:
0)
1C
11
1(
#650000
b11 !
b10 !
0:
1D
1)
0C
1E
01
12
0(
1'
#655000
b11 !
1:
0)
1C
11
1(
#660000
b111 !
b101 !
b100 !
0:
0D
17
1)
0C
0E
1H
01
02
13
0(
0'
1&
#665000
b101 !
1:
0)
1C
11
1(
#670000
b111 !
b110 !
0:
1D
1)
0C
1E
01
12
0(
1'
#675000
b111 !
1:
0)
1C
11
1(
#680000
b1111 !
b1011 !
b1001 !
b1000 !
0:
0D
07
16
1)
1?
0C
0E
0H
0K
01
02
03
04
0(
0'
0&
0%
0@
00
0$
#685000
b1001 !
1:
0)
1C
11
1(
#690000
b1011 !
b1010 !
0:
1D
1)
0C
1E
01
12
0(
1'
#695000
b1011 !
1:
0)
1C
11
1(
#700000
b1111 !
b1101 !
b1100 !
0:
0D
17
1)
0C
0E
1H
01
02
13
0(
0'
1&
#705000
b1101 !
1:
0)
1C
11
1(
#710000
b1111 !
b1110 !
0:
1D
1)
0C
1E
01
12
0(
1'
#715000
b1111 !
1:
0)
1C
11
1(
#720000
b1001 "
b111 !
b11 !
b1 !
b0 !
0:
0D
07
06
1A
1)
0?
0B
0C
0E
0H
1K
1<
01
02
03
14
0(
0'
0&
1%
1@
1C
0=
10
11
1$
1(
1E
1>
12
1'
1H
13
1&
0K
04
0%
#725000
b1 !
1:
0)
0<
0C
1=
01
0(
0E
0>
02
0'
0H
03
0&
1K
14
1%
#730000
b11 !
b10 !
0:
1D
1)
1<
1C
1E
11
12
1(
1'
0E
02
0'
#735000
b11 !
1:
0)
0<
0C
01
0(
1E
12
1'
#740000
b111 !
b101 !
b100 !
0:
0D
17
1)
1<
1C
0E
1H
0=
11
02
13
1(
0'
1&
1E
12
1'
0H
03
0&
#745000
b101 !
1:
0)
0<
0C
1=
01
0(
0E
02
0'
1H
13
1&
#750000
b111 !
b110 !
0:
1D
1)
1<
1C
1E
11
12
1(
1'
0E
02
0'
#755000
b111 !
1:
0)
0<
0C
01
0(
1E
12
1'
#760000
b1111 !
b1011 !
b1001 !
b1000 !
0:
0D
07
16
1)
1<
1?
1C
0E
0H
0K
0=
11
02
03
04
1(
0'
0&
0%
1E
0@
1>
12
00
1'
0$
1H
0?
13
1&
1K
14
1%
1@
10
1$
#765000
b1001 !
1:
0)
0<
0C
1=
01
0(
0E
0>
02
0'
0H
1?
03
0&
0K
04
0%
0@
00
0$
#770000
b1011 !
b1010 !
0:
1D
1)
1<
1C
1E
11
12
1(
1'
0E
02
0'
#775000
b1011 !
1:
0)
0<
0C
01
0(
1E
12
1'
#780000
b1111 !
b1101 !
b1100 !
0:
0D
17
1)
1<
1C
0E
1H
0=
11
02
13
1(
0'
1&
1E
12
1'
0H
03
0&
#785000
b1101 !
1:
0)
0<
0C
1=
01
0(
0E
02
0'
1H
13
1&
#790000
b1111 !
b1110 !
0:
1D
1)
1<
1C
1E
11
12
1(
1'
0E
02
0'
#795000
b1111 !
1:
0)
0<
0C
01
0(
1E
12
1'
#800000
b1011 "
b1010 "
b111 !
b11 !
b1 !
b0 !
0:
0D
07
06
0A
18
1)
1<
0?
1B
09
1C
0E
0H
1K
0=
0<
11
02
03
14
1(
0'
0&
1%
1@
0C
1>
10
01
1$
0(
1H
1E
13
12
1&
1'
0K
04
0%
#805000
b1 !
1:
0)
1C
11
1(
#810000
b11 !
b10 !
0:
1D
1)
1=
0C
0E
0>
01
02
0(
0'
0H
03
0&
1K
14
1%
#815000
b11 !
1:
0)
1C
11
1(
#820000
b111 !
b101 !
b100 !
0:
0D
17
1)
0=
0C
1E
1H
01
12
13
0(
1'
1&
0H
03
0&
#825000
b101 !
1:
0)
1C
11
1(
#830000
b111 !
b110 !
0:
1D
1)
1=
0C
0E
01
02
0(
0'
1H
13
1&
#835000
b111 !
1:
0)
1C
11
1(
#840000
b1111 !
b1011 !
b1001 !
b1000 !
0:
0D
07
16
1)
0=
1?
0C
1E
0H
0K
1>
01
12
03
04
0(
1'
0&
0%
1H
0@
0?
13
00
1&
0$
1K
14
1%
1@
10
1$
#845000
b1001 !
1:
0)
1C
11
1(
#850000
b1011 !
b1010 !
0:
1D
1)
1=
0C
0E
0>
01
02
0(
0'
0H
1?
03
0&
0K
04
0%
0@
00
0$
#855000
b1011 !
1:
0)
1C
11
1(
#860000
b1111 !
b1101 !
b1100 !
0:
0D
17
1)
0=
0C
1E
1H
01
12
13
0(
1'
1&
0H
03
0&
#865000
b1101 !
1:
0)
1C
11
1(
#870000
b1111 !
b1110 !
0:
1D
1)
1=
0C
0E
01
02
0(
0'
1H
13
1&
#875000
b1111 !
1:
0)
1C
11
1(
#880000
b1011 "
b111 !
b11 !
b1 !
b0 !
0:
0D
07
06
1A
1)
0=
0?
0B
0C
1E
0H
1K
1>
1<
01
12
03
14
0(
1'
0&
1%
1H
1@
1C
13
10
11
1&
1$
1(
0K
0E
04
02
0%
0'
#885000
b1 !
1:
0)
0<
0C
01
0(
1E
12
1'
#890000
b11 !
b10 !
0:
1D
1)
1<
1=
1C
0E
0=
0>
11
02
1(
0'
1E
0H
1>
12
03
1'
0&
1H
1K
13
14
1&
1%
0K
04
0%
#895000
b11 !
1:
0)
0<
0C
1=
01
0(
0E
0>
02
0'
0H
03
0&
1K
14
1%
#900000
b111 !
b101 !
b100 !
0:
0D
17
1)
1<
0=
1C
1E
1H
11
12
13
1(
1'
1&
0E
0H
02
03
0'
0&
#905000
b101 !
1:
0)
0<
0C
01
0(
1E
12
1'
#910000
b111 !
b110 !
0:
1D
1)
1<
1=
1C
0E
0=
11
02
1(
0'
1E
1H
12
13
1'
1&
0H
03
0&
#915000
b111 !
1:
0)
0<
0C
1=
01
0(
0E
02
0'
1H
13
1&
#920000
b1111 !
b1011 !
b1001 !
b1000 !
0:
0D
07
16
1)
1<
0=
1?
1C
1E
0H
0K
1>
11
12
03
04
1(
1'
0&
0%
0E
1H
0@
0?
02
13
00
0'
1&
0$
1K
14
1%
1@
10
1$
#925000
b1001 !
1:
0)
0<
0C
01
0(
1E
12
1'
#930000
b1011 !
b1010 !
0:
1D
1)
1<
1=
1C
0E
0=
0>
11
02
1(
0'
1E
0H
1>
1?
12
03
1'
0&
1H
0K
0?
13
04
1&
0%
1K
0@
14
00
1%
0$
1@
10
1$
#935000
b1011 !
1:
0)
0<
0C
1=
01
0(
0E
0>
02
0'
0H
1?
03
0&
0K
04
0%
0@
00
0$
#940000
b1111 !
b1101 !
b1100 !
0:
0D
17
1)
1<
0=
1C
1E
1H
11
12
13
1(
1'
1&
0E
0H
02
03
0'
0&
#945000
b1101 !
1:
0)
0<
0C
01
0(
1E
12
1'
#950000
b1111 !
b1110 !
0:
1D
1)
1<
1=
1C
0E
0=
11
02
1(
0'
1E
1H
12
13
1'
1&
0H
03
0&
#955000
b1111 !
1:
0)
0<
0C
1=
01
0(
0E
02
0'
1H
13
1&
#960000
b1111 "
b1101 "
b1100 "
b111 !
b11 !
b1 !
b0 !
0:
0D
07
06
0A
08
1F
1)
1<
0=
0?
1B
19
0G
1C
1E
0H
1K
1>
0<
11
12
03
14
1(
1'
0&
1%
1@
0C
1=
10
01
1$
0(
0K
0E
04
02
0%
0'
1H
13
1&
#965000
b1 !
1:
0)
1C
11
1(
#970000
b11 !
b10 !
0:
1D
1)
0C
1E
01
12
0(
1'
#975000
b11 !
1:
0)
1C
11
1(
#980000
b111 !
b101 !
b100 !
0:
0D
17
1)
0>
0C
0E
0H
01
02
03
0(
0'
0&
1K
14
1%
#985000
b101 !
1:
0)
1C
11
1(
#990000
b111 !
b110 !
0:
1D
1)
0C
1E
01
12
0(
1'
#995000
b111 !
1:
0)
1C
11
1(
